<?xml version="1.0" encoding="utf-8"?>
<!-- Generator: Adobe Illustrator 21.0.0, SVG Export Plug-In . SVG Version: 6.00 Build 0)  -->
<svg version="1.1" id="Layer_1" xmlns="http://www.w3.org/2000/svg" xmlns:xlink="http://www.w3.org/1999/xlink" x="0px" y="0px"
	 viewBox="0 0 400 400" style="enable-background:new 0 0 400 400;" xml:space="preserve">
<style type="text/css">
	.st0{stroke:#000000;stroke-width:5;stroke-miterlimit:10;}
</style>
<path class="st0" d="M201.4,389.7c-95.2,0-175.2-71.2-186-165.7l2.7-0.3C28.7,316.8,107.5,387,201.4,387s172.7-70.2,183.4-163.3
	l2.7,0.3C376.6,318.4,296.6,389.7,201.4,389.7"/>
<path class="st0" d="M384.8,181.4C374.2,88.1,295.4,17.8,201.4,17.8S28.5,88.1,18,181.4l-2.7-0.3C26,86.5,106,15.1,201.4,15.1
	s175.4,71.4,186.1,166L384.8,181.4z"/>
<path d="M383.5,202.4c0-2.1,1.7-3.8,3.8-3.8c2.1,0,3.8,1.7,3.8,3.8s-1.7,3.8-3.8,3.8S383.5,204.5,383.5,202.4"/>
<path d="M11.1,202.4c0-2.1,1.7-3.8,3.8-3.8s3.8,1.7,3.8,3.8s-1.7,3.8-3.8,3.8S11.1,204.5,11.1,202.4"/>
<g>
	<g>
		<path d="M226.2,128v17.7c0,13.6-11.1,24.7-24.7,24.7s-24.7-11.1-24.7-24.7V128h-7.1v17.7c0,17.5,14.3,31.8,31.8,31.8
			c17.5,0,31.8-14.3,31.8-31.8V128H226.2z"/>
	</g>
</g>
<g>
	<g>
		<path d="M300.7,273.8l-19-76.1c-2-7.8-9-13.1-16.8-13.2l-42.2-3.3v-14.4h-7.1v17.7c0,1.8,1.4,3.4,3.3,3.5l45.8,3.5c0,0,0,0,0,0
			c4.8,0,9,3.3,10.2,7.9l19,76.1c0.3,1.4,0.5,2.8,0.5,4.3c0,9.7-7.9,17.7-17.7,17.7v7.1c13.6,0,24.7-11.1,24.7-24.7
			C301.5,277.8,301.2,275.8,300.7,273.8z"/>
	</g>
</g>
<g>
	<g>
		<path d="M180.3,166.8v14.4l-41.9,3.3c0,0,0,0,0,0c-8,0-15.1,5.4-17.1,13.3l-19,76.1c-1.6,6.4-0.6,13,2.8,18.7
			c3.4,5.7,8.8,9.7,15.2,11.3c2,0.5,4,0.7,6,0.7v-7.1c-1.4,0-2.9-0.2-4.3-0.5c-4.6-1.1-8.4-4-10.9-8.1c-2.4-4-3.1-8.8-2-13.4l19-76
			c1.2-4.7,5.4-8,10.6-8l45.5-3.5c1.8-0.1,3.3-1.7,3.3-3.5v-17.7H180.3z"/>
	</g>
</g>
<g>
	<g>
		<path d="M215.6,92.7h-28.2c-9.7,0-17.7,7.9-17.7,17.7v21.2c0,1.9,1.6,3.5,3.5,3.5h56.5c1.9,0,3.5-1.6,3.5-3.5v-21.2
			C233.2,100.6,225.3,92.7,215.6,92.7z M226.2,128h-49.4v-17.7c0-5.8,4.8-10.6,10.6-10.6h28.2c5.8,0,10.6,4.8,10.6,10.6L226.2,128
			L226.2,128z"/>
	</g>
</g>
<g>
	<g>
		<path d="M215.6,113.9h-28.2c-9.7,0-17.7,7.9-17.7,17.7c0,1.9,1.6,3.5,3.5,3.5h56.5c1.9,0,3.5-1.6,3.5-3.5
			C233.2,121.8,225.3,113.9,215.6,113.9z M177.3,128c1.5-4.1,5.4-7.1,10-7.1h28.2c4.6,0,8.5,3,10,7.1H177.3z"/>
	</g>
</g>
<g>
	<g>
		<path d="M201.5,145.6v-14.1h-7.1v17.7c0,1.9,1.6,3.5,3.5,3.5h7.1v-7.1H201.5z"/>
	</g>
</g>
<g>
	<g>
		<path d="M169.7,283.3h-28.2v-7.1c0-5.8-4.8-10.6-10.6-10.6c-5.8,0-10.6,4.8-10.6,10.6V301c0,2,1.6,3.5,3.5,3.5h31.8
			c9.7,0,17.7-7.9,17.7-17.7C173.2,284.9,171.6,283.3,169.7,283.3z M155.6,297.5h-28.2v-21.2c0-1.9,1.6-3.5,3.5-3.5
			c1.9,0,3.5,1.6,3.5,3.5v10.6c0,2,1.6,3.5,3.5,3.5h27.6C164.1,294.5,160.2,297.5,155.6,297.5z"/>
	</g>
</g>
<g>
	<g>
		<rect x="115.3" y="233.9" width="29.1" height="8.3"/>
	</g>
</g>
<g>
	<g>
		<rect x="265" y="244.5" width="24.7" height="7.1"/>
	</g>
</g>
<g>
	<g>
		<path d="M265,198.6H137.9c-1.9,0-3.5,1.6-3.5,3.5v84.7c0,2,1.6,3.5,3.5,3.5H265c1.9,0,3.5-1.6,3.5-3.5v-84.7
			C268.5,200.2,267,198.6,265,198.6z M261.5,283.3h-120v-77.7h120L261.5,283.3L261.5,283.3z"/>
	</g>
</g>
<g>
	<g>
		<rect x="247.4" y="269.2" width="7.1" height="7.1"/>
	</g>
</g>
<g>
	<g>
		<rect x="233.2" y="269.2" width="7.1" height="7.1"/>
	</g>
</g>
<g>
	<g>
		<path d="M216.6,182l-15.2,15.2L186.3,182l-5,5l17.7,17.7c0.7,0.7,1.6,1,2.5,1s1.8-0.4,2.5-1l17.7-17.7L216.6,182z"/>
	</g>
</g>
<g>
	<g>
		<path d="M272.1,265.7c-5.8,0-10.6,4.8-10.6,10.6v7.1h-28.2c-2,0-3.5,1.6-3.5,3.5c0,9.7,7.9,17.7,17.7,17.7h31.8
			c1.9,0,3.5-1.6,3.5-3.5v-24.7C282.7,270.4,277.9,265.7,272.1,265.7z M275.6,297.5h-28.2c-4.6,0-8.5-3-10-7.1H265
			c2,0,3.5-1.6,3.5-3.5v-10.6c0-1.9,1.6-3.5,3.5-3.5c1.9,0,3.5,1.6,3.5,3.5L275.6,297.5L275.6,297.5z"/>
	</g>
</g>
<g>
	<g>
		<rect x="137.9" y="223.3" width="127.1" height="7.1"/>
	</g>
</g>
<g>
	<g>
		<path d="M215.6,198.6h-28.2c-1.9,0-3.5,1.6-3.5,3.5V248c0,2,1.6,3.5,3.5,3.5h28.2c1.9,0,3.5-1.6,3.5-3.5v-45.9
			C219.1,200.2,217.5,198.6,215.6,198.6z M212,244.5h-21.2v-38.8H212V244.5z"/>
	</g>
</g>
</svg>
