<?xml version="1.0" encoding="utf-8"?>
<!-- Generator: Adobe Illustrator 21.0.0, SVG Export Plug-In . SVG Version: 6.00 Build 0)  -->
<svg version="1.1" id="Capa_1" xmlns="http://www.w3.org/2000/svg" xmlns:xlink="http://www.w3.org/1999/xlink" x="0px" y="0px"
	 viewBox="0 0 500 42" style="enable-background:new 0 0 500 42;" xml:space="preserve">
<style type="text/css">
	.st0{fill:#F6EFF5;}
</style>
<path class="st0" d="M494.3,0l-30.5,30.5L433.2,0l0,0l0,0l-30.5,30.5L372.1,0l0,0l0,0l-30.5,30.5L311.1,0l0,0l0,0l-30.5,30.5L250,0
	l0,0l0,0l-30.5,30.5L188.9,0l0,0l0,0l-30.5,30.5L127.9,0l0,0l0,0L97.3,30.5L66.8,0l0,0l0,0L36.2,30.5L5.7,0L0,5.7l30.5,30.5l5.7,5.7
	l5.7-5.7l24.8-24.8l24.8,24.8l5.7,5.7l5.7-5.7l24.8-24.8l24.8,24.8l5.7,5.7l5.7-5.7l24.8-24.8l24.8,24.8l5.7,5.7l5.7-5.7L250,11.4
	l24.8,24.8l5.7,5.7l5.7-5.7L311,11.4l24.8,24.8l5.7,5.7l5.7-5.7L372,11.4l25,24.9l5.7,5.7l5.7-5.7l24.8-24.8L458,36.3l5.7,5.7
	l5.7-5.7L500,5.7"/>
</svg>
